{
  "type": "service_account",
  "project_id": "presto-it",
  "private_key_id": "b2cd86b0911bf1e72129f3c0e63a820bfbfeff4e",
  "private_key": "-----BEGIN PRIVATE KEY-----\nMIIEvQIBADANBgkqhkiG9w0BAQEFAASCBKcwggSjAgEAAoIBAQCllJ+4OU7qrscx\n9l79BLvb0YD/FrOzuWsWYM0HIjfWXBCDZKiw7+Bf/eGQ0KAxG3PTiVwU8cn1J641\nKlFGzyJ9vpA7IW8ZQDVn+v0+qzaMD3DboBEZzSDY8cc1hBZTCTX6B4MUmNLr5NlZ\nWoGP3W4ejg47DmdkMY8BU3aTTsj3oJdRbdiVg8peb075sF81q/i49hEj2Rkga74Y\ni4rfnrqGIDvA76lKa12mmqEfJjKiAl+nMgpftNcPJVcIc0m1ur/dMLV409CnvLkQ\nuobBObWujnn+4BuYj01+syeeLJWTx+T+niI9L5PhZpyhjTV09FoDvZjKdVHmaRbr\nQNrXCnXHAgMBAAECggEARgMs8dmRi9vxMCgLjBK3WEAiujmgLGtHY4P0zYJjd8kf\n1l72kTIsfoo8GV6NjZYdCKH5BIYkLfvkRmipSzaEUAUGuWnurw+eRWQ0No5wlxJk\nVwk8kdtRe0noQLGkOuIXJ6yLeWcRMFtop8aEKA+p41OPotr5Tr1ByX7AEZNrmIBp\ndeWRZMXTYkjIHIIO24wLKsjbpeRVT/96eVEcc3hiBcePV9jAibJM9/1PqpRahcaR\nGX8bqNp3yNjwjFSGbJifyxhQQGqLZdslHMqHNLnTyTNGMQ1g1YrHp8EcFh47t4jV\nM+2b5M2pkjU5xSTHhEq/mgPYDOrJb6wFdBIux1FNWQKBgQDZ/h8ldkmVH/wVN6f8\n+n4vtBWduIADWeLzzCPX8evbbaMjlHqeuas66p8knSHUsJK6Zfso9OwwhVXmJdzF\n1wfRWsPEeTpBjENRsa3euw/ai+AI4sppMUMB/JALe40fRSZHcp/ESWA9tHXHy0W8\n1UnumWMFPRX+sN7P+KwJg6heZQKBgQDCcyRbubKLHw6giiF7BVujGQjH57HHeoiV\nJya11Ur7ttEiHpSdKZRntD9VvtBDNN/MbJX6KqkDVU2J8iT4dteyNtskCsLwTH8T\ni1v1CAw7y2qvaL9Udf2HNb+iZFvp9AST2VQSTl3vJJwZR42S5958s8sf90o4wYNk\nvW2TPYZauwKBgHKhHIO4hczy+r21fJKcrgorqko7oKUieSM2L4r4XcwPBQBKrYgV\nniLnCTRZpFaRWzbFNaM9141UL+1L76HhBu1hyxvfm3CobyXgRsueliGX+AD0MPfL\nva6nvp8rIvRUimJ7teOjqgYIhP7AtzUq+yuKYPV6P7ykCSZXXy/JmZm5AoGAR/HC\nKg3y+XZsOwngiVvaI+ZHUW9wX5X+ovDxaaWZMLjbd/xIkD2qIxSVumv3MmaFx2UF\nuKHAFvOg1ME63JNcCxwwyI0Sw0YKXnjZdTedDyKcPnpLEDz3qOdCGBt5xn36k5l9\neah1KN4qw0+uGgSgVRNQvGsKkyVGMCfGOwwwgbECgYEAx/wUTJLh/5fOcHtnt7fV\ndQQOvKTBhF/f8zjZlkvJejKtny9/pRw8udaS1iJpDLbPjwrPNwIB2ZR3WHHc7XRD\n957H5ds0aBGXrHRuwrW3Xp8M2joeRwbwmNBAeMW/GuInGw1r6bBmJagSPP7lIrOi\npkjiA/JJDt2wlyIDkTvxp7s=\n-----END PRIVATE KEY-----\n",
  "client_email": "presto-michele@presto-it.iam.gserviceaccount.com",
  "client_id": "105779028969199478066",
  "auth_uri": "https://accounts.google.com/o/oauth2/auth",
  "token_uri": "https://oauth2.googleapis.com/token",
  "auth_provider_x509_cert_url": "https://www.googleapis.com/oauth2/v1/certs",
  "client_x509_cert_url": "https://www.googleapis.com/robot/v1/metadata/x509/presto-michele%40presto-it.iam.gserviceaccount.com"
}
